{"failedCount":0,"prefixedPath":"classpath:karateDemo\/getMethod.feature","packageQualifiedName":"karateDemo.getMethod","loopIndex":-1,"relativePath":"karateDemo\/getMethod.feature","scenarioResults":[{"sectionIndex":0,"stepResults":[{"result":{"nanos":51483100,"millis":51.4831,"status":"passed"},"step":{"line":7,"prefix":"Given","index":0,"text":"url 'https:\/\/reqres.in\/api\/users\/2'"}},{"result":{"nanos":545350600,"millis":545.3506,"status":"passed"},"step":{"line":8,"prefix":"When","index":1,"text":"method GET"},"stepLog":"19:07:33.047 request:\n1 > GET https:\/\/reqres.in\/api\/users\/2\n1 > Host: reqres.in\n1 > Connection: Keep-Alive\n1 > User-Agent: Apache-HttpClient\/4.5.14 (Java\/17)\n1 > Accept-Encoding: gzip,deflate\n\n\n19:07:33.332 response time in milliseconds: 280\n1 < 200\n1 < Date: Sun, 01 Dec 2024 13:37:33 GMT\n1 < Content-Type: application\/json; charset=utf-8\n1 < Transfer-Encoding: chunked\n1 < Connection: keep-alive\n1 < Report-To: {\"group\":\"heroku-nel\",\"max_age\":3600,\"endpoints\":[{\"url\":\"https:\/\/nel.heroku.com\/reports?ts=1732970821&sid=c4c9725f-1ab0-44d8-820f-430df2718e11&s=zmpoh8ImPVEBGFqodMPlYLTzJ9r5mSfj%2FrSIr9mXpu0%3D\"}]}\n1 < Reporting-Endpoints: heroku-nel=https:\/\/nel.heroku.com\/reports?ts=1732970821&sid=c4c9725f-1ab0-44d8-820f-430df2718e11&s=zmpoh8ImPVEBGFqodMPlYLTzJ9r5mSfj%2FrSIr9mXpu0%3D\n1 < Nel: {\"report_to\":\"heroku-nel\",\"max_age\":3600,\"success_fraction\":0.005,\"failure_fraction\":0.05,\"response_headers\":[\"Via\"]}\n1 < X-Powered-By: Express\n1 < Access-Control-Allow-Origin: *\n1 < Etag: W\/\"152-ApQgGHL6RKwaebFlrPCYPBO1xHg\"\n1 < Via: 1.1 vegur\n1 < Cache-Control: max-age=14400\n1 < CF-Cache-Status: HIT\n1 < Age: 1950\n1 < Vary: Accept-Encoding\n1 < Server: cloudflare\n1 < CF-RAY: 8eb378f65a6af303-BOM\n1 < server-timing: cfL4;desc=\"?proto=TCP&rtt=18331&min_rtt=18242&rtt_var=7019&sent=7&recv=7&lost=0&retrans=0&sent_bytes=3110&recv_bytes=753&delivery_rate=227908&cwnd=240&unsent_bytes=0&cid=ec47f66579b32539&ts=128&x=0\"\n{\"data\":{\"id\":2,\"email\":\"janet.weaver@reqres.in\",\"first_name\":\"Janet\",\"last_name\":\"Weaver\",\"avatar\":\"https:\/\/reqres.in\/img\/faces\/2-image.jpg\"},\"support\":{\"url\":\"https:\/\/contentcaddy.io?utm_source=reqres&utm_medium=json&utm_campaign=referral\",\"text\":\"Tired of writing endless social media content? Let Content Caddy generate it for you.\"}}\n\n"},{"result":{"nanos":39900,"millis":0.0399,"status":"passed"},"step":{"line":9,"prefix":"Then","index":2,"text":"status 200"}}],"line":6,"description":"","durationMillis":596.8736,"failed":false,"tags":["tag1"],"executorName":"main","name":"sample get method","startTime":1733060252762,"refId":"[1:6]","endTime":1733060253369,"exampleIndex":-1},{"sectionIndex":1,"stepResults":[{"result":{"nanos":930900,"millis":0.9309,"status":"passed"},"step":{"line":14,"prefix":"Given","index":0,"text":"url 'https:\/\/reqres.in'"}},{"result":{"nanos":702700,"millis":0.7027,"status":"passed"},"step":{"line":15,"prefix":"And","index":1,"text":"path '\/api\/users'"}},{"result":{"nanos":9856800,"millis":9.8568,"status":"passed"},"step":{"line":16,"prefix":"And","index":2,"text":"param page = 2"}},{"result":{"nanos":89120700,"millis":89.1207,"status":"passed"},"step":{"line":17,"prefix":"When","index":3,"text":"method GET"},"stepLog":"19:07:33.402 request:\n1 > GET https:\/\/reqres.in\/api\/users?page=2\n1 > Host: reqres.in\n1 > Connection: Keep-Alive\n1 > User-Agent: Apache-HttpClient\/4.5.14 (Java\/17)\n1 > Accept-Encoding: gzip,deflate\n\n\n19:07:33.487 response time in milliseconds: 85\n1 < 200\n1 < Date: Sun, 01 Dec 2024 13:37:33 GMT\n1 < Content-Type: application\/json; charset=utf-8\n1 < Transfer-Encoding: chunked\n1 < Connection: keep-alive\n1 < Report-To: {\"group\":\"heroku-nel\",\"max_age\":3600,\"endpoints\":[{\"url\":\"https:\/\/nel.heroku.com\/reports?ts=1732519855&sid=c4c9725f-1ab0-44d8-820f-430df2718e11&s=nUYqsxxIYFERZAXoIHlFcYCQoLpEBVREWQS0bQ%2B6s58%3D\"}]}\n1 < Reporting-Endpoints: heroku-nel=https:\/\/nel.heroku.com\/reports?ts=1732519855&sid=c4c9725f-1ab0-44d8-820f-430df2718e11&s=nUYqsxxIYFERZAXoIHlFcYCQoLpEBVREWQS0bQ%2B6s58%3D\n1 < Nel: {\"report_to\":\"heroku-nel\",\"max_age\":3600,\"success_fraction\":0.005,\"failure_fraction\":0.05,\"response_headers\":[\"Via\"]}\n1 < X-Powered-By: Express\n1 < Access-Control-Allow-Origin: *\n1 < Etag: W\/\"440-ZjsmMKR8P3usr2uJZbOCGCxC3Uw\"\n1 < Via: 1.1 vegur\n1 < Cache-Control: max-age=14400\n1 < CF-Cache-Status: HIT\n1 < Age: 4517\n1 < Vary: Accept-Encoding\n1 < Server: cloudflare\n1 < CF-RAY: 8eb378f758bbf3b5-BOM\n1 < server-timing: cfL4;desc=\"?proto=TCP&rtt=18271&min_rtt=17628&rtt_var=7896&sent=3&recv=5&lost=0&retrans=0&sent_bytes=187&recv_bytes=1167&delivery_rate=63235&cwnd=249&unsent_bytes=0&cid=9b00bfd381c1a391&ts=33&x=0\"\n{\"page\":2,\"per_page\":6,\"total\":12,\"total_pages\":2,\"data\":[{\"id\":7,\"email\":\"michael.lawson@reqres.in\",\"first_name\":\"Michael\",\"last_name\":\"Lawson\",\"avatar\":\"https:\/\/reqres.in\/img\/faces\/7-image.jpg\"},{\"id\":8,\"email\":\"lindsay.ferguson@reqres.in\",\"first_name\":\"Lindsay\",\"last_name\":\"Ferguson\",\"avatar\":\"https:\/\/reqres.in\/img\/faces\/8-image.jpg\"},{\"id\":9,\"email\":\"tobias.funke@reqres.in\",\"first_name\":\"Tobias\",\"last_name\":\"Funke\",\"avatar\":\"https:\/\/reqres.in\/img\/faces\/9-image.jpg\"},{\"id\":10,\"email\":\"byron.fields@reqres.in\",\"first_name\":\"Byron\",\"last_name\":\"Fields\",\"avatar\":\"https:\/\/reqres.in\/img\/faces\/10-image.jpg\"},{\"id\":11,\"email\":\"george.edwards@reqres.in\",\"first_name\":\"George\",\"last_name\":\"Edwards\",\"avatar\":\"https:\/\/reqres.in\/img\/faces\/11-image.jpg\"},{\"id\":12,\"email\":\"rachel.howell@reqres.in\",\"first_name\":\"Rachel\",\"last_name\":\"Howell\",\"avatar\":\"https:\/\/reqres.in\/img\/faces\/12-image.jpg\"}],\"support\":{\"url\":\"https:\/\/contentcaddy.io?utm_source=reqres&utm_medium=json&utm_campaign=referral\",\"text\":\"Tired of writing endless social media content? Let Content Caddy generate it for you.\"}}\n\n"},{"result":{"nanos":9900,"millis":0.0099,"status":"passed"},"step":{"line":18,"prefix":"Then","index":4,"text":"status 200"}},{"result":{"nanos":57695000,"millis":57.695,"status":"passed"},"step":{"line":19,"prefix":"And","index":5,"text":"print responseStatus"},"stepLog":"19:07:33.546 [print] 200 \n"},{"result":{"nanos":5623400,"millis":5.6234,"status":"passed"},"step":{"line":20,"prefix":"And","index":6,"text":"print response"},"stepLog":"19:07:33.553 [print] {\n  \"page\": 2,\n  \"per_page\": 6,\n  \"total\": 12,\n  \"total_pages\": 2,\n  \"data\": [\n    {\n      \"id\": 7,\n      \"email\": \"michael.lawson@reqres.in\",\n      \"first_name\": \"Michael\",\n      \"last_name\": \"Lawson\",\n      \"avatar\": \"https:\/\/reqres.in\/img\/faces\/7-image.jpg\"\n    },\n    {\n      \"id\": 8,\n      \"email\": \"lindsay.ferguson@reqres.in\",\n      \"first_name\": \"Lindsay\",\n      \"last_name\": \"Ferguson\",\n      \"avatar\": \"https:\/\/reqres.in\/img\/faces\/8-image.jpg\"\n    },\n    {\n      \"id\": 9,\n      \"email\": \"tobias.funke@reqres.in\",\n      \"first_name\": \"Tobias\",\n      \"last_name\": \"Funke\",\n      \"avatar\": \"https:\/\/reqres.in\/img\/faces\/9-image.jpg\"\n    },\n    {\n      \"id\": 10,\n      \"email\": \"byron.fields@reqres.in\",\n      \"first_name\": \"Byron\",\n      \"last_name\": \"Fields\",\n      \"avatar\": \"https:\/\/reqres.in\/img\/faces\/10-image.jpg\"\n    },\n    {\n      \"id\": 11,\n      \"email\": \"george.edwards@reqres.in\",\n      \"first_name\": \"George\",\n      \"last_name\": \"Edwards\",\n      \"avatar\": \"https:\/\/reqres.in\/img\/faces\/11-image.jpg\"\n    },\n    {\n      \"id\": 12,\n      \"email\": \"rachel.howell@reqres.in\",\n      \"first_name\": \"Rachel\",\n      \"last_name\": \"Howell\",\n      \"avatar\": \"https:\/\/reqres.in\/img\/faces\/12-image.jpg\"\n    }\n  ],\n  \"support\": {\n    \"url\": \"https:\/\/contentcaddy.io?utm_source=reqres&utm_medium=json&utm_campaign=referral\",\n    \"text\": \"Tired of writing endless social media content? Let Content Caddy generate it for you.\"\n  }\n}\n \n"}],"line":13,"description":"","durationMillis":163.9394,"failed":false,"tags":["tag2"],"executorName":"main","name":"sample get method and operation","startTime":1733060253387,"refId":"[2:13]","endTime":1733060253553,"exampleIndex":-1}],"callDepth":0,"name":"Title of your feature","description":"I want to use this template for my feature file","resultDate":"2024-12-01 07:07:33 PM","durationMillis":760.813,"passedCount":2}